{
    "definitions":{
        "ip-dns":{
        "pattern": "^([01]?\\d\\d?|2[0-4]\\d|25[0-5])\\.([01]?\\d\\d?|2[0-4]\\d|25[0-5])\\.([01]?\\d\\d?|2[0-4]\\d|25[0-5])\\.([01]?\\d\\d?|2[0-4]\\d|25[0-5])$|^([\\da-z\\.-]+)\\.([a-z\\.]{2,6})([\\/\\w \\.-]*)*\\/?$",
        "type": "string",
        "minLength": 7,
        "maxLength": 100
      }
    },
    "title": "LoRaWAN Radio",
    "type": "object",
    "required": [],
    "properties": {
        "LORA_LORAWAN_ENABLE": {
            "enum": [
                      "0",
                      "1"
                    ],
            "enumNames": [
                      "Off",
                      "On"
                    ],
            "default": "1",
            "type": "string",
            "title": "Enable"
        },
        "LORA_RADIO0_FREQ": {
            "minimum": 863000,
            "maximum": 870000,
            "default": 867500,
            "type": "integer",
            "title": "Radio 0 Main Frequency(KHz)"
        },
        "LORA_RADIO1_FREQ": {
            "minimum": 863000,
            "maximum": 870000,
            "default": 868500,
            "type": "integer",
            "title": "Radio 1 Main Frequency(KHz)"
        },
        "LORA_LRNTS_ADDR": {
            "$ref": "#/definitions/ip-dns",
            "type": "string",
            "title": "Packet Forward IP Address"
        },
        "LORA_LRNTS_UP_PORT": {
            "minimum": 0,
            "maximum": 65535,
            "default": 1680,
            "type": "integer",
            "title": "Upstream Port"
        },
        "LORA_LRNTS_DW_PORT": {
            "minimum": 0,
            "maximum": 65535,
            "default": 1680,
            "type": "integer",
            "title": "Dowanstream Port"
        },
        "Static-0": {
            "required": [],
            "properties": {
                "LORA_RADIO_CHAN_EN0": {
                    "enum": [
                        "0",
                        "1"
                    ],
                    "enumNames": [
                        "Off",
                        "On"
                    ],
                    "default": "1",
                    "type": "string",
                    "title": "Enable"
                },
                "LORA_RADIO_CHAN_SE0": {
                    "enum": [
                        "0",
                        "1"
                    ],
                    "enumNames": [
                        "Radio 0",
                        "Radio 1"
                    ],
                    "default": "1",
                    "type": "string",
                    "title": "Radio Select"
                },
                "LORA_RADIO_CHAN0": {
                    "minimum": -450,
                    "maximum": 450,
                    "default": -400,
                    "type": "integer",
                    "title": "Offset(Khz)"
                }
            },
            "type": "object",
            "title": "Channel 0"
        },
        "Static-1": {
            "required": [],
            "properties": {
                "LORA_RADIO_CHAN_EN1": {
                    "enum": [
                        "0",
                        "1"
                    ],
                    "enumNames": [
                        "Off",
                        "On"
                    ],
                    "default": "1",
                    "type": "string",
                    "title": "Enable"
                },
                "LORA_RADIO_CHAN_SE1": {
                    "enum": [
                        "0",
                        "1"
                    ],
                    "enumNames": [
                        "Radio 0",
                        "Radio 1"
                    ],
                    "default": "1",
                    "type": "string",
                    "title": "Radio Select"
                },
                "LORA_RADIO_CHAN1": {
                    "minimum": -450,
                    "maximum": 450,
                    "default": -200,
                    "type": "integer",
                    "title": "Offset(Khz)"
                }
            },
            "type": "object",
            "title": "Channel 1"
        },
        "Static-2": {
            "required": [],
            "properties": {
                "LORA_RADIO_CHAN_EN2": {
                    "enum": [
                        "0",
                        "1"
                    ],
                    "enumNames": [
                        "Off",
                        "On"
                    ],
                    "default": "1",
                    "type": "string",
                    "title": "Enable"
                },
                "LORA_RADIO_CHAN_SE2": {
                    "enum": [
                        "0",
                        "1"
                    ],
                    "enumNames": [
                        "Radio 0",
                        "Radio 1"
                    ],
                    "default": "1",
                    "type": "string",
                    "title": "Radio Select"
                },
                "LORA_RADIO_CHAN2": {
                    "minimum": -450,
                    "maximum": 450,
                    "default": 0,
                    "type": "integer",
                    "title": "Offset(Khz)"
                }
            },
            "type": "object",
            "title": "Channel 2"
        },
        "Static-3": {
            "required": [],
            "properties": {
                "LORA_RADIO_CHAN_EN3": {
                    "enum": [
                        "0",
                        "1"
                    ],
                    "enumNames": [
                        "Off",
                        "On"
                    ],
                    "default": "1",
                    "type": "string",
                    "title": "Enable"
                },
                "LORA_RADIO_CHAN_SE3": {
                    "enum": [
                        "0",
                        "1"
                    ],
                    "enumNames": [
                        "Radio 0",
                        "Radio 1"
                    ],
                    "default": "0",
                    "type": "string",
                    "title": "Radio Select"
                },
                "LORA_RADIO_CHAN3": {
                    "minimum": -450,
                    "maximum": 450,
                    "default": -400,
                    "type": "integer",
                    "title": "Offset(Khz)"
                }
            },
            "type": "object",
            "title": "Channel 3"
        },
        "Static-4": {
            "required": [],
            "properties": {
                "LORA_RADIO_CHAN_EN4": {
                    "enum": [
                        "0",
                        "1"
                    ],
                    "enumNames": [
                        "Off",
                        "On"
                    ],
                    "default": "1",
                    "type": "string",
                    "title": "Enable"
                },
                "LORA_RADIO_CHAN_SE4": {
                    "enum": [
                        "0",
                        "1"
                    ],
                    "enumNames": [
                        "Radio 0",
                        "Radio 1"
                    ],
                    "default": "0",
                    "type": "string",
                    "title": "Radio Select"
                },
                "LORA_RADIO_CHAN4": {
                    "minimum": -450,
                    "maximum": 450,
                    "default": -200,
                    "type": "integer",
                    "title": "Offset(Khz)"
                }
            },
            "type": "object",
            "title": "Channel 4"
        },
        "Static-5": {
            "required": [],
            "properties": {
                "LORA_RADIO_CHAN_EN5": {
                    "enum": [
                        "0",
                        "1"
                    ],
                    "enumNames": [
                        "Off",
                        "On"
                    ],
                    "default": "1",
                    "type": "string",
                    "title": "Enable"
                },
                "LORA_RADIO_CHAN_SE5": {
                    "enum": [
                        "0",
                        "1"
                    ],
                    "enumNames": [
                        "Radio 0",
                        "Radio 1"
                    ],
                    "default": "0",
                    "type": "string",
                    "title": "Radio Select"
                },
                "LORA_RADIO_CHAN5": {
                    "minimum": -450,
                    "maximum": 450,
                    "default": 0,
                    "type": "integer",
                    "title": "Offset(Khz)"
                }
            },
            "type": "object",
            "title": "Channel 5"
        },
        "Static-6": {
            "required": [],
            "properties": {
                "LORA_RADIO_CHAN_EN6": {
                    "enum": [
                        "0",
                        "1"
                    ],
                    "enumNames": [
                        "Off",
                        "On"
                    ],
                    "default": "1",
                    "type": "string",
                    "title": "Enable"
                },
                "LORA_RADIO_CHAN_SE6": {
                    "enum": [
                        "0",
                        "1"
                    ],
                    "enumNames": [
                        "Radio 0",
                        "Radio 1"
                    ],
                    "default": "0",
                    "type": "string",
                    "title": "Radio Select"
                },
                "LORA_RADIO_CHAN6": {
                    "minimum": -450,
                    "maximum": 450,
                    "default": 200,
                    "type": "integer",
                    "title": "Offset(Khz)"
                }
            },
            "type": "object",
            "title": "Channel 6"
        },
        "Static-7": {
            "required": [],
            "properties": {
                "LORA_RADIO_CHAN_EN7": {
                    "enum": [
                        "0",
                        "1"
                    ],
                    "enumNames": [
                        "Off",
                        "On"
                    ],
                    "default": "1",
                    "type": "string",
                    "title": "Enable"
                },
                "LORA_RADIO_CHAN_SE7": {
                    "enum": [
                        "0",
                        "1"
                    ],
                    "enumNames": [
                        "Radio 0",
                        "Radio 1"
                    ],
                    "default": "0",
                    "type": "string",
                    "title": "Radio Select"
                },
                "LORA_RADIO_CHAN7": {
                    "minimum": -450,
                    "maximum": 450,
                    "default": 400,
                    "type": "integer",
                    "title": "Offset(Khz)"
                }
            },
            "type": "object",
            "title": "Channel 7"
        },
        "Static-8": {
            "required": [],
            "properties": {
                "LORA_STD_C_EN": {
                    "enum": [
                        "0",
                        "1"
                    ],
                    "enumNames": [
                        "Off",
                        "On"
                    ],
                    "default": "1",
                    "type": "string",
                    "title": "Enable"
                },
                "LORA_STD_C_RADIO": {
                    "enum": [
                        "0",
                        "1"
                    ],
                    "enumNames": [
                        "Radio 0",
                        "Radio 1"
                    ],
                    "default": "0",
                    "type": "string",
                    "title": "Radio Select"
                },
                "LORA_STD_C_BW": {
                    "enum": [
                        "0",
                        "1"
                    ],
                    "enumNames": [
                        "250Khz",
                        "500Khz"
                    ],
                    "default": "0",
                    "type": "string",
                    "title": "Bandwidth"
                },
                "LORA_STD_C_SF": {
                    "enum": [
                        "7",
                        "8",
                        "9",
                        "10",
                        "11",
                        "12"
                    ],
                    "enumNames": [
                        "7",
                        "8",
                        "9",
                        "10",
                        "11",
                        "12"
                    ],
                    "default": "7",
                    "type": "string",
                    "title": "SF"
                },
                "LORA_RADIO_STD": {
                    "minimum": -450,
                    "maximum": 450,
                    "default": -200,
                    "type": "integer",
                    "title": "Offset(Khz)"
                }
            },
            "type": "object",
            "title": "Channel STD"
        },
        "Static-9": {
            "required": [],
            "properties": {
                "LORA_FSK_C_EN": {
                    "enum": [
                        "0",
                        "1"
                    ],
                    "enumNames": [
                        "Off",
                        "On"
                    ],
                    "default": "1",
                    "type": "string",
                    "title": "Enable"
                },
                "LORA_FSK_C_RADIO": {
                    "enum": [
                        "0",
                        "1"
                    ],
                    "enumNames": [
                        "Radio 0",
                        "Radio 1"
                    ],
                    "default": "0",
                    "type": "string",
                    "title": "Radio Select"
                },
                "LORA_FSK_C_BW": {
                    "enum": [
                        "0",
                        "1"
                    ],
                    "enumNames": [
                        "125Khz",
                        "250Khz"
                    ],
                    "default": "0",
                    "type": "string",
                    "title": "Bandwidth"
                },
                "LORA_FSK_C_DR": {
                    "minimum": 0,
                    "maximum": 300000,
                    "default": 50000,
                    "type": "integer",
                    "title": "Datarate (bps)"
                },
                "LORA_RADIO_FSK": {
                    "minimum": -450,
                    "maximum": 450,
                    "default": 400,
                    "type": "integer",
                    "title": "Offset(Khz)"
                }
            },
            "type": "object",
            "title": "Channel FSK"
        }
    },
    "dependencies": {}
}
